<?xml version="1.0" encoding="UTF-8"?>
<svg width="20px" height="24px" viewBox="0 0 20 24" version="1.1" xmlns="http://www.w3.org/2000/svg" xmlns:xlink="http://www.w3.org/1999/xlink">
    <!-- Generator: Sketch 63.1 (92452) - https://sketch.com -->
    <title>Assessment_icon</title>
    <desc>Created with Sketch.</desc>
    <g id="Icons" stroke="none" stroke-width="1" fill="none" fill-rule="evenodd">
        <g id="Assessment_icon" fill="#777777" fill-rule="nonzero">
            <path d="M17.236534,0 L2.74785324,0 C1.23203747,0 0,1.233 0,2.75 L0,21.25 C0,22.767 1.23203747,24 2.74785324,24 L17.236534,24 C18.7523497,24 19.9843872,22.767 19.9843872,21.25 L19.9843872,2.75 C19.9843872,1.233 18.7523497,0 17.236534,0 Z M8.7431694,13 L8.7431694,8.076 C11.1412959,8.441 12.9898517,10.5 12.9898517,13 C12.9898517,15.757 10.7486027,18 7.99375488,18 C6.88661983,18 5.87241218,17.626 5.04306011,17.013 L8.52334114,13.53 C8.66423107,13.39 8.7431694,13.199 8.7431694,13 L8.7431694,13 Z M7.24434036,8.076 L7.24434036,12.69 L3.98388759,15.953 C3.37136612,15.123 2.99765808,14.108 2.99765808,13 C2.99765808,10.5 4.8462139,8.441 7.24434036,8.076 Z M16.2373146,21.25 L3.7470726,21.25 C3.33339578,21.25 2.99765808,20.914 2.99765808,20.5 C2.99765808,20.086 3.33339578,19.75 3.7470726,19.75 L16.2373146,19.75 C16.6509914,19.75 16.9867291,20.086 16.9867291,20.5 C16.9867291,20.914 16.6509914,21.25 16.2373146,21.25 Z M16.2373146,18 L14.7384856,18 C14.3248087,18 13.989071,17.664 13.989071,17.25 C13.989071,16.836 14.3248087,16.5 14.7384856,16.5 L16.2373146,16.5 C16.6509914,16.5 16.9867291,16.836 16.9867291,17.25 C16.9867291,17.664 16.6509914,18 16.2373146,18 Z M16.2373146,15.25 L14.7384856,15.25 C14.3248087,15.25 13.989071,14.914 13.989071,14.5 C13.989071,14.086 14.3248087,13.75 14.7384856,13.75 L16.2373146,13.75 C16.6509914,13.75 16.9867291,14.086 16.9867291,14.5 C16.9867291,14.914 16.6509914,15.25 16.2373146,15.25 Z M16.2373146,12.25 L14.7384856,12.25 C14.3248087,12.25 13.989071,11.914 13.989071,11.5 C13.989071,11.086 14.3248087,10.75 14.7384856,10.75 L16.2373146,10.75 C16.6509914,10.75 16.9867291,11.086 16.9867291,11.5 C16.9867291,11.914 16.6509914,12.25 16.2373146,12.25 Z M16.2373146,9.5 L14.7384856,9.5 C14.3248087,9.5 13.989071,9.164 13.989071,8.75 C13.989071,8.336 14.3248087,8 14.7384856,8 L16.2373146,8 C16.6509914,8 16.9867291,8.336 16.9867291,8.75 C16.9867291,9.164 16.6509914,9.5 16.2373146,9.5 Z" id="Shape"></path>
        </g>
    </g>
</svg>